{
  "EDITOR_STATE": {
    "allProjectFiles": {
      "c7ad4b2b-1ae7-4b7e-a854-ec93d01fb61d": {
        "id": "c7ad4b2b-1ae7-4b7e-a854-ec93d01fb61d",
        "parent": null,
        "name": "kn.js",
        "type": "JS_LAMBDA",
        "isDirectory": false,
        "children": [],
        "isRemovable": true,
        "filePath": "kn.js",
        "cursor": {
          "lineNumber": 1,
          "column": 1
        },
        "config": {
          "runtime": "nodejs10.x",
          "handler": "handler",
          "timeout": 60,
          "memory": 128,
          "layers": [],
          "name": "kn"
        },
        "triggers": [
          {
            "resourceName": "apigTestAPIDDBresourcecheckany",
            "config": {}
          }
        ],
        "lastUpdated": 1612160133816,
        "testCases": {
          "f6a1423a-0126-4892-9feb-b7405ac63ff1": {
            "id": "f6a1423a-0126-4892-9feb-b7405ac63ff1",
            "name": "Test event",
            "functionId": "c7ad4b2b-1ae7-4b7e-a854-ec93d01fb61d",
            "event": "{\r\n    \"key1\": \"value1\",\r\n    \"key2\": \"value2\",\r\n    \"key3\": \"value3\"\r\n}",
            "eventTemplate": "hello-world"
          }
        }
      },
      "100c243f-a567-441a-96bc-5d3b5a939961": {
        "id": "100c243f-a567-441a-96bc-5d3b5a939961",
        "parent": null,
        "name": "package.json",
        "type": "JSON_FILE",
        "isDirectory": false,
        "children": [],
        "isRemovable": true,
        "filePath": "package.json"
      }
    },
    "openFiles": [
      "c7ad4b2b-1ae7-4b7e-a854-ec93d01fb61d"
    ],
    "currentFileId": "c7ad4b2b-1ae7-4b7e-a854-ec93d01fb61d",
    "resources": {
      "cognitok": {
        "name": "cognitok",
        "type": "CognitoIdentityServiceProvider",
        "config": {
          "mode": 0,
          "name": "k",
          "userPool": {
            "Name": "k",
            "isNew": true,
            "AutoVerifiedAttributes": [],
            "AliasAttributes": [],
            "UsernameAttributes": [],
            "Policies": {
              "PasswordPolicy": {
                "MinimumLength": 8,
                "RequireUppercase": true,
                "RequireLowercase": true,
                "RequireNumbers": true,
                "RequireSymbols": true
              }
            },
            "SchemaAttributes": [
              {
                "AttributeDataType": "String",
                "DeveloperOnlyAttribute": false,
                "Mutable": false,
                "Name": "sub",
                "Required": true
              },
              {
                "AttributeDataType": "String",
                "DeveloperOnlyAttribute": false,
                "Mutable": true,
                "Name": "address",
                "Required": false
              },
              {
                "AttributeDataType": "String",
                "DeveloperOnlyAttribute": false,
                "Mutable": true,
                "Name": "birthdate",
                "Required": false
              },
              {
                "AttributeDataType": "String",
                "DeveloperOnlyAttribute": false,
                "Mutable": true,
                "Name": "email",
                "Required": false
              },
              {
                "AttributeDataType": "String",
                "DeveloperOnlyAttribute": false,
                "Mutable": true,
                "Name": "family_name",
                "Required": false
              },
              {
                "AttributeDataType": "String",
                "DeveloperOnlyAttribute": false,
                "Mutable": true,
                "Name": "gender",
                "Required": false
              },
              {
                "AttributeDataType": "String",
                "DeveloperOnlyAttribute": false,
                "Mutable": true,
                "Name": "given_name",
                "Required": false
              },
              {
                "AttributeDataType": "String",
                "DeveloperOnlyAttribute": false,
                "Mutable": true,
                "Name": "locale",
                "Required": false
              },
              {
                "AttributeDataType": "String",
                "DeveloperOnlyAttribute": false,
                "Mutable": true,
                "Name": "middle_name",
                "Required": false
              },
              {
                "AttributeDataType": "String",
                "DeveloperOnlyAttribute": false,
                "Mutable": true,
                "Name": "name",
                "Required": false
              },
              {
                "AttributeDataType": "String",
                "DeveloperOnlyAttribute": false,
                "Mutable": true,
                "Name": "nickname",
                "Required": false
              },
              {
                "AttributeDataType": "String",
                "DeveloperOnlyAttribute": false,
                "Mutable": true,
                "Name": "phone_number",
                "Required": false
              },
              {
                "AttributeDataType": "String",
                "DeveloperOnlyAttribute": false,
                "Mutable": true,
                "Name": "picture",
                "Required": false
              },
              {
                "AttributeDataType": "String",
                "DeveloperOnlyAttribute": false,
                "Mutable": true,
                "Name": "preferred_username",
                "Required": false
              },
              {
                "AttributeDataType": "String",
                "DeveloperOnlyAttribute": false,
                "Mutable": true,
                "Name": "profile",
                "Required": false
              },
              {
                "AttributeDataType": "String",
                "DeveloperOnlyAttribute": false,
                "Mutable": true,
                "Name": "timezone",
                "Required": false
              },
              {
                "AttributeDataType": "Number",
                "DeveloperOnlyAttribute": false,
                "Mutable": true,
                "Name": "updated_at",
                "Required": false
              },
              {
                "AttributeDataType": "String",
                "DeveloperOnlyAttribute": false,
                "Mutable": true,
                "Name": "website",
                "Required": false
              }
            ],
            "AdminCreateUserConfig": {
              "AllowAdminCreateUserOnly": false,
              "UnusedAccountValidityDays": 7,
              "InviteMessageTemplate": {}
            }
          }
        }
      },
      "apigTestAPIDDBresourcecheckany": {
        "name": "apigTestAPIDDBresourcecheckany",
        "type": "API_GATEWAY",
        "config": {
          "apiType": 1,
          "apiMode": 1,
          "apiName": "TestAPI",
          "apiId": "0itznun7w3",
          "endpointType": "EDGE",
          "rootResourceId": "h2lelj6j7k",
          "existingResources": {
            "/DDBresource": "0aenia",
            "/DDBresource/check": "70q21i",
            "/MyLambda": "98nqbj",
            "/": "h2lelj6j7k",
            "/newchange/test": "k6pdhn",
            "/newchange": "q1ox7l",
            "/testWithSlash": "q4m4g1",
            "/testtwospeciallambda": "q4szm3",
            "/testtwospecialkumutest": "wey3lk"
          },
          "resourceMode": 1,
          "resourcePath": "/DDBresource/check",
          "resourceName": "DDBresource/check",
          "resourceId": "70q21i",
          "restMethod": "ANY",
          "proxyIntegration": false,
          "enableCORS": false,
          "stageMode": 1,
          "stageName": "test",
          "stageDeploymentId": "yiq81s",
          "mode": 1
        }
      }
    },
    "customTemplate": {
      "syntax": "JSON",
      "overrideDefault": false,
      "dialect": null,
      "definitions": null
    },
    "envVariables": [
      {
        "lambdaId": "all",
        "varKey": "SIGMA_AWS_ACC_ID",
        "varValue": null,
        "shouldPersist": false,
        "displayOnly": false,
        "editable": false
      }
    ],
    "packageJSON": {
      "dependencies": {
        "aws-sdk": {
          "name": "aws-sdk",
          "language": "nodejs",
          "version": "2.817.0",
          "dev": true,
          "notRemovable": false
        }
      }
    }
  },
  "PROJECT_META": {
    "sigmaVersion": "1.5.2",
    "projectName": "kn",
    "projectDescription": "",
    "projectVersion": "1.0.0",
    "projectRegion": "us-east-1",
    "platform": "AWS",
    "language": "nodejs",
    "platformRegions": {},
    "lastSave": 1612161113090
  },
  "VCS_STATE": {
    "provider": "GitLab",
    "repo": {
      "name": "kn",
      "url": "https://gitlab.com/kumudika/kn"
    }
  }
}